<?xml version="1.0" standalone="no"?>
<!DOCTYPE svg PUBLIC "-//W3C//DTD SVG 20010904//EN"
 "http://www.w3.org/TR/2001/REC-SVG-20010904/DTD/svg10.dtd">
<svg version="1.0" xmlns="http://www.w3.org/2000/svg"
 width="16.000000pt" height="16.000000pt" viewBox="0 0 16.000000 16.000000"
 preserveAspectRatio="xMidYMid meet">
<metadata>
Created by potrace 1.11, written by Peter Selinger 2001-2013
</metadata>
<g transform="translate(0.000000,16.000000) scale(0.010667,-0.010667)"
fill="#000000" stroke="none">
<path d="M616 1261 c-3 -5 1 -22 9 -37 19 -37 20 -118 1 -133 -11 -9 -18 -6
-36 19 -27 39 -41 38 -88 -5 -54 -48 -89 -103 -96 -150 -5 -31 -4 -36 4 -22 6
9 14 17 19 17 9 0 1 -182 -9 -195 -4 -5 -15 -36 -24 -67 -9 -32 -19 -63 -21
-71 -3 -7 15 -34 40 -59 85 -87 141 -181 159 -272 12 -58 14 -61 44 -64 32 -3
32 -3 32 43 0 59 -62 187 -131 274 -51 62 -57 79 -37 99 6 6 17 28 24 49 11
31 10 49 -3 111 -13 60 -14 86 -6 143 11 68 34 119 53 119 5 0 19 -11 32 -24
51 -55 121 -53 118 2 -3 44 0 48 16 19 18 -34 31 -28 40 21 l8 37 8 -35 c4
-19 6 -44 3 -56 -4 -17 0 -20 18 -18 12 1 30 3 39 3 10 1 36 17 57 37 l40 35
15 -30 c22 -41 44 -143 48 -217 2 -47 -1 -64 -15 -78 -20 -21 -22 -54 -3 -75
34 -39 29 -67 -24 -127 -49 -56 -94 -151 -120 -257 -16 -59 -9 -77 30 -77 26
0 30 3 30 29 0 58 60 193 115 259 62 74 86 120 79 150 -4 15 -11 32 -16 39
-12 15 -31 219 -24 256 8 38 -16 90 -61 135 -55 54 -67 57 -105 20 l-32 -31
-8 23 c-8 21 2 103 17 141 3 10 1 20 -6 25 -25 15 -73 -60 -106 -166 -6 -20
-32 26 -33 57 0 12 -5 25 -10 28 -6 4 -19 24 -30 46 -19 37 -42 50 -54 30z"/>
<path d="M810 902 c-8 -2 -27 -16 -42 -30 l-27 -25 -35 27 c-41 31 -70 33
-113 6 -24 -14 -33 -27 -33 -46 0 -57 65 -122 107 -107 10 3 30 17 46 31 l27
26 28 -27 c46 -44 94 -34 131 27 31 49 12 91 -49 114 -14 5 -32 7 -40 4z
m-155 -62 c3 -5 1 -10 -4 -10 -18 0 -12 -28 7 -33 10 -3 6 -5 -11 -6 -32 -1
-46 22 -27 44 14 17 26 19 35 5z m200 -20 c0 -22 -5 -25 -35 -27 -19 0 -25 1
-12 4 22 4 32 33 11 33 -5 0 -7 5 -4 11 12 19 40 5 40 -21z"/>
<path d="M597 678 c-5 -16 6 -39 47 -93 35 -45 60 -124 71 -218 4 -38 12 -60
22 -64 23 -9 31 13 31 88 0 76 26 145 81 213 39 48 40 66 3 66 -29 0 -92 -54
-92 -78 0 -7 -7 -12 -15 -12 -8 0 -15 7 -15 15 0 8 -17 25 -38 39 -20 13 -43
31 -51 40 -16 19 -38 21 -44 4z"/>
</g>
</svg>
